simulation/qsim/Counter_lab6_74ls93.msim.vcd
$comment
	File created using the following command:
		vcd file Counter_lab6_74ls93.msim.vcd -direction
$end
$date
	Wed Mar 22 13:24:00 2023
$end
$version
	ModelSim Version 2020.1
$end
$timescale
	1ps
$end

$scope module counter_lab6_74ls93_vhd_vec_tst $end
$var wire 1 ! InvCp0 $end
$var wire 1 " Q0 $end
$var wire 1 # Q1 $end
$var wire 1 $ Q2 $end
$var wire 1 % Q3 $end

$scope module i1 $end
$var wire 1 & gnd $end
$var wire 1 ' vcc $end
$var wire 1 ( unknown $end
$var wire 1 ) devoe $end
$var wire 1 * devclrn $end
$var wire 1 + devpor $end
$var wire 1 , ww_devoe $end
$var wire 1 - ww_devclrn $end
$var wire 1 . ww_devpor $end
$var wire 1 / ww_InvCp0 $end
$var wire 1 0 ww_Q0 $end
$var wire 1 1 ww_Q1 $end
$var wire 1 2 ww_Q2 $end
$var wire 1 3 ww_Q3 $end
$var wire 1 4 \~QUARTUS_CREATED_GND~I_combout\ $end
$var wire 1 5 \InvCp0~input_o\ $end
$var wire 1 6 \mod2_counter|Q~0_combout\ $end
$var wire 1 7 \mod8_counter1|Q~0_combout\ $end
$var wire 1 8 \mod8_counter1|Q~feeder_combout\ $end
$var wire 1 9 \mod8_counter1|Q~q\ $end
$var wire 1 : \mod8_counter2|Q~0_combout\ $end
$var wire 1 ; \mod8_counter2|Q~feeder_combout\ $end
$var wire 1 < \mod8_counter2|Q~q\ $end
$var wire 1 = \mod8_counter3|Q~0_combout\ $end
$var wire 1 > \mod8_counter3|Q~q\ $end
$var wire 1 ? \Cd~combout\ $end
$var wire 1 @ \mod2_counter|Q~q\ $end
$var wire 1 A \mod2_counter|ALT_INV_Q~q\ $end
$var wire 1 B \mod8_counter2|ALT_INV_Q~q\ $end
$var wire 1 C \mod8_counter1|ALT_INV_Q~q\ $end
$var wire 1 D \mod8_counter3|ALT_INV_Q~q\ $end
$var wire 1 E \ALT_INV_Cd~combout\ $end
$var wire 1 F \mod8_counter1|ALT_INV_Q~0_combout\ $end
$var wire 1 G \mod8_counter2|ALT_INV_Q~0_combout\ $end
$var wire 1 H \ALT_INV_InvCp0~input_o\ $end
$upscope $end
$upscope $end
$enddefinitions $end
#0
$dumpvars
0!
0"
0#
0$
0%
0&
1'
x(
1)
1*
1+
1,
1-
1.
0/
00
01
02
03
x4
05
16
17
18
09
1:
1;
0<
1=
0>
0?
0@
1A
1B
1C
1D
1E
0F
0G
1H
$end
#1000
1!
1/
15
0H
#2000
0!
0/
05
1H
1@
0A
06
10
1"
#3000
1!
1/
15
0H
#4000
0!
0/
05
1H
0@
1A
16
19
0C
00
07
0"
1F
11
08
1#
#5000
1!
1/
15
0H
#6000
0!
0/
05
1H
1@
0A
06
10
1"
#7000
1!
1/
15
0H
#8000
0!
0/
05
1H
0@
1A
16
09
1C
00
17
1<
0"
0B
0F
01
18
0:
0#
1G
12
0;
1$
#9000
1!
1/
15
0H
#10000
0!
0/
05
1H
1@
0A
06
10
1"
#11000
1!
1/
15
0H
#12000
0!
0/
05
1H
0@
1A
16
19
0C
00
07
0"
1F
11
08
1#
#13000
1!
1/
15
0H
#14000
0!
0/
05
1H
1@
0A
06
10
1"
#15000
1!
1/
15
0H
#16000
0!
0/
05
1H
0@
1A
16
09
1C
00
17
0<
0"
1B
0F
01
18
1:
1>
0#
0D
0G
02
1;
0=
0$
13
1%
#17000
1!
1/
15
0H
#18000
0!
0/
05
1H
1@
0A
06
10
1"
#19000
1!
1/
15
0H
#20000
0!
0/
05
1H
0@
1A
16
19
0C
00
07
1?
0"
0E
1F
11
08
09
0>
1#
1D
1C
17
1=
0?
1E
0F
03
01
18
0%
0#
#21000
1!
1/
15
0H
#22000
0!
0/
05
1H
1@
0A
06
10
1"
#23000
1!
1/
15
0H
#24000
0!
0/
05
1H
0@
1A
16
19
0C
00
07
0"
1F
11
08
1#
#25000
1!
1/
15
0H
#26000
0!
0/
05
1H
1@
0A
06
10
1"
#27000
1!
1/
15
0H
#28000
0!
0/
05
1H
0@
1A
16
09
1C
00
17
1<
0"
0B
0F
01
18
0:
0#
1G
12
0;
1$
#29000
1!
1/
15
0H
#30000
0!
0/
05
1H
1@
0A
06
10
1"
#31000
1!
1/
15
0H
#32000
0!
0/
05
1H
0@
1A
16
19
0C
00
07
0"
1F
11
08
1#
#33000
1!
1/
15
0H
#34000
0!
0/
05
1H
1@
0A
06
10
1"
#35000
1!
1/
15
0H
#36000
0!
0/
05
1H
0@
1A
16
09
1C
00
17
0<
0"
1B
0F
01
18
1:
1>
0#
0D
0G
02
1;
0=
0$
13
1%
#37000
1!
1/
15
0H
#38000
0!
0/
05
1H
1@
0A
06
10
1"
#39000
1!
1/
15
0H
#40000
0!
0/
05
1H
0@
1A
16
19
0C
00
07
1?
0"
0E
1F
11
08
09
0>
1#
1D
1C
17
1=
0?
1E
0F
03
01
18
0%
0#
#41000
1!
1/
15
0H
#42000
0!
0/
05
1H
1@
0A
06
10
1"
#43000
1!
1/
15
0H
#44000
0!
0/
05
1H
0@
1A
16
19
0C
00
07
0"
1F
11
08
1#
#45000
1!
1/
15
0H
#46000
0!
0/
05
1H
1@
0A
06
10
1"
#47000
1!
1/
15
0H
#48000
0!
0/
05
1H
0@
1A
16
09
1C
00
17
1<
0"
0B
0F
01
18
0:
0#
1G
12
0;
1$
#49000
1!
1/
15
0H
#50000
0!
0/
05
1H
1@
0A
06
10
1"
#51000
1!
1/
15
0H
#52000
0!
0/
05
1H
0@
1A
16
19
0C
00
07
0"
1F
11
08
1#
#53000
1!
1/
15
0H
#54000
0!
0/
05
1H
1@
0A
06
10
1"
#55000
1!
1/
15
0H
#56000
0!
0/
05
1H
0@
1A
16
09
1C
00
17
0<
0"
1B
0F
01
18
1:
1>
0#
0D
0G
02
1;
0=
0$
13
1%
#57000
1!
1/
15
0H
#58000
0!
0/
05
1H
1@
0A
06
10
1"
#59000
1!
1/
15
0H
#60000
0!
0/
05
1H
0@
1A
16
19
0C
00
07
1?
0"
0E
1F
11
08
09
0>
1#
1D
1C
17
1=
0?
1E
0F
03
01
18
0%
0#
#61000
1!
1/
15
0H
#62000
0!
0/
05
1H
1@
0A
06
10
1"
#63000
1!
1/
15
0H
#64000
0!
0/
05
1H
0@
1A
16
19
0C
00
07
0"
1F
11
08
1#
#65000
1!
1/
15
0H
#66000
0!
0/
05
1H
1@
0A
06
10
1"
#67000
1!
1/
15
0H
